Case #1: 2961
Case #2: 1311
Case #3: 1651
Case #4: 4512
Case #5: 1308
Case #6: 14
Case #7: 973
Case #8: 3674
Case #9: 5411
Case #10: 1680
Case #11: 1298
Case #12: 4530
Case #13: 1785
Case #14: 1459
Case #15: 4301
Case #16: 1384
Case #17: 3459
Case #18: 386
Case #19: 1279
Case #20: 4669
